…
``` r
rp_country_au_df
#> # A tibble: 39 x 4
#> # Groups:   PUBYEAR [5]
#>    COUNTRY_PER_AUTH_CNT PUBYEAR COUNTRY_N   PROP
#>    <fct>                  <dbl>     <dbl>  <dbl>
#>  1 1                       2014   1441013 0.962 
#>  2 1                       2015   1495351 0.960 
#>  3 1                       2016   1709133 0.945 
#>  4 1                       2017   1740170 0.944 
#>  5 1                       2018   1828802 0.942 
#>  6 2                       2014     55434 0.0370
#>  7 2                       2015     59977 0.0385
#>  8 2                       2016     96786 0.0535
#>  9 2                       2017     99119 0.0538
#> 10 2                       2018    107512 0.0554
#> # … with 29 more rows
```
…
Country share

``` r
all_count <- rp_country_mat %>%
  count(INST_COUNTRYCODE, sort = TRUE)
co_count <- co_pubs %>%
  ungroup() %>%
  count(INST_COUNTRYCODE, sort = TRUE, name = "n_co")
left_join(all_count, co_count, by = "INST_COUNTRYCODE") %>%
  mutate(prop = n_co / n * 100) 
#> # A tibble: 249 x 4
#>    INST_COUNTRYCODE       n   n_co  prop
#>    <chr>              <int>  <int> <dbl>
#>  1 USA              1675266 135429  8.08
#>  2 CHN              1492259  95259  6.38
#>  3 GBR               410762  63330 15.4 
#>  4 DEU               391561  52884 13.5 
#>  5 JPN               332902  20692  6.22
#>  6 IND               292829  12520  4.28
#>  7 KOR               259593  13445  5.18
#>  8 ITA               258881  22743  8.79
#>  9 FRA               253486  35473 14.0 
#> 10 CAN               246357  27937 11.3 
#> # … with 239 more rows
```
…
