…
Crossref indexed 90.5184969 % of Web of Science journals.

The following table shows the number of journals per publisher.

``` r
rp_df %>% 
  distinct(ISSN, publisher) %>% 
  count(publisher, sort = TRUE) %>% 
  mutate(prop = n /sum(n))
```

    ## # A tibble: 1,186 x 3
    ##    publisher                                     n   prop
    ##    <chr>                                     <int>  <dbl>
    ##  1 Elsevier BV                                1862 0.136 
    ##  2 Springer Nature                            1813 0.132 
    ##  3 Informa UK Limited                         1393 0.101 
    ##  4 <NA>                                       1302 0.0948
    ##  5 Wiley                                      1292 0.0941
    ##  6 SAGE Publications                           661 0.0481
    ##  7 Oxford University Press (OUP)               328 0.0239
    ##  8 Cambridge University Press (CUP)            301 0.0219
    ##  9 Ovid Technologies (Wolters Kluwer Health)   213 0.0155
    ## 10 Walter de Gruyter GmbH                      201 0.0146
    ## # … with 1,176 more rows
…
