…
Crossref indexed 88.18 % of Web of Science journals.

The following table shows the number of journals per publisher.

``` r
rp_df %>% 
  distinct(ISSN, publisher) %>% 
  count(publisher, sort = TRUE) %>% 
  mutate(prop = n /sum(n) * 100)
```

    ## # A tibble: 1,166 x 3
    ##    publisher                                     n  prop
    ##    <chr>                                     <int> <dbl>
    ##  1 Elsevier BV                                1807 13.1 
    ##  2 Springer Nature                            1782 12.9 
    ##  3 <NA>                                       1627 11.8 
    ##  4 Informa UK Limited                         1362  9.90
    ##  5 Wiley                                      1277  9.28
    ##  6 SAGE Publications                           652  4.74
    ##  7 Oxford University Press (OUP)               319  2.32
    ##  8 Cambridge University Press (CUP)            292  2.12
    ##  9 Ovid Technologies (Wolters Kluwer Health)   210  1.53
    ## 10 Walter de Gruyter GmbH                      199  1.45
    ## # … with 1,156 more rows

Next, the number and proportion of original articles and reviews
published per publisher is presented:

``` r
rp_df %>% 
  group_by(publisher) %>%
  summarise(n = sum(PUBS)) %>% 
  mutate(prop = n /sum(n) * 100) %>%
  arrange(desc(prop))
```

    ## # A tibble: 1,166 x 3
    ##    publisher                                                      n  prop
    ##    <chr>                                                      <dbl> <dbl>
    ##  1 Elsevier BV                                              1942425 23.8 
    ##  2 Springer Nature                                          1134385 13.9 
    ##  3 Wiley                                                     711824  8.73
    ##  4 Informa UK Limited                                        411910  5.05
    ##  5 <NA>                                                      395542  4.85
    ##  6 American Chemical Society (ACS)                           216320  2.65
    ##  7 SAGE Publications                                         190534  2.34
    ##  8 Royal Society of Chemistry (RSC)                          189477  2.32
    ##  9 Institute of Electrical and Electronics Engineers (IEEE)  178400  2.19
    ## 10 Oxford University Press (OUP)                             176699  2.17
    ## # … with 1,156 more rows
…
